#Module_ID  #ASIC_ID  #Channel  #ADC_To_MIP  #LowGain_To_HighGain_Transition  #LowGain_To_HighGain_Conversion  #TOT_To_LowGain_Transition  #TOT_To_LowGain_Conversion  #TOT_Offset  #Fully_calibrated--  -  --  ---------  -------  -------  ----  -------  ---  -
666  0  30  0.0217643  1823.88  7.97641  1113  5        177  0
666  0  32  0.0217643  1823.88  7.97641  1113  5        177  0
666  0  34  0.0217643  1823.88  7.97641  1113  5        177  0
666  0  36  0.0217643  1823.88  7.97641  1113  5        177  0
666  0  38  0.0217643  1823.88  7.97641  1113  5        177  0
666  0  40  0.0217643  1823.88  7.97641  1113  5        177  0
666  1  30  0.0217643  1823.88  7.97641  1113  5        177  0
666  1  32  0.0217643  1823.88  7.97641  1113  5        177  0
666  1  34  0.0217643  1823.88  7.97641  1113  5        177  0
666  1  36  0.0217643  1823.88  7.97641  1113  5        177  0
666  1  38  0.0217643  1823.88  7.97641  1113  5        177  0
666  1  40  0.0217643  1823.88  7.97641  1113  5        177  0
666  2  30  0.0217643  1823.88  7.97641  1113  5        177  0
666  2  32  0.0217643  1823.88  7.97641  1113  5        177  0
666  2  34  0.0217643  1823.88  7.97641  1113  5        177  0
666  2  36  0.0217643  1823.88  7.97641  1113  5        177  0
666  2  38  0.0217643  1823.88  7.97641  1113  5        177  0
666  2  40  0.0217643  1823.88  7.97641  1113  5        177  0
666  3  30  0.0217643  1823.88  7.97641  1113  5        177  0
666  3  32  0.0217643  1823.88  7.97641  1113  5        177  0
666  3  34  0.0217643  1823.88  7.97641  1113  5        177  0
666  3  36  0.0217643  1823.88  7.97641  1113  5        177  0
666  3  38  0.0217643  1823.88  7.97641  1113  5        177  0
666  3  40  0.0217643  1823.88  7.97641  1113  5        177  0
--  -  --  ---------  -------  -------  ----  -------  ---  -