1 131.7
2 142.8
3 171
4 182.1
5 207.7
6 218.8
7 245.4
8 256.5
9 283.1
10 294.2
11 320.8
12 331.9
13 356.5
14 367.6
15 392.2
16 403.3
17 427.9
18 439
19 463.6
20 474.7
21 502.3
22 513.4
23 545
24 556.1
25 584.7
26 595.8
27 624.4
28 635.5
29 771.8
30 843.7
31 915.6
32 988.5
33 1060.4
34 1132.3
35 1306.2
36 1385.1
37 1464
38 1545.9
39 1624.8
40 1702.7